{
    "fields": [
        {
            "name": "name_de",
            "type": "string"
        },
        {
            "name": "name_fr",
            "type": "string"
        },
        {
            "name": "name_en",
            "type": "string"
        }
    ],
    "relationships": [
        {
            "name": "accident",
            "type": "hasMany",
            "class": "App\\Accident"
        }
    ],
    "validations": [
        {
            "field": "name_de",
            "rules": "required"
        },
        {
            "field": "name_fr",
            "rules": "required"
        }
    ]
}
